{
    "minimizeToTray": "on",
    "discordBranch": "canary",
    "arRPC": "on",
    "splashColor": "rgb(219, 222, 225)",
    "splashBackground": "rgb(49, 51, 56)",
    "customTitleBar": false,
    "splashTheming": true
}